{
  "project_info": {
    "project_number": "568509215615",
    "firebase_url": "https://reciclapp-236cb.firebaseio.com",
    "project_id": "reciclapp-236cb",
    "storage_bucket": "reciclapp-236cb.appspot.com"
  },
  "client": [
    {
      "client_info": {
        "mobilesdk_app_id": "1:568509215615:android:7de7fa9f8af88610",
        "android_client_info": {
          "package_name": "com.facci.cav.reciclapp.reciclapp"
        }
      },
      "oauth_client": [
        {
          "client_id": "568509215615-l2ffljpumjbjcih9ll7gsb4g34t5sruk.apps.googleusercontent.com",
          "client_type": 1,
          "android_info": {
            "package_name": "com.facci.cav.reciclapp.reciclapp",
            "certificate_hash": "85d8196c4abcecc6da4278bad433ef5ac30b5b27"
          }
        },
        {
          "client_id": "568509215615-9s379nbahv3u9bn8rgdsrt8tafchfkrl.apps.googleusercontent.com",
          "client_type": 3
        }
      ],
      "api_key": [
        {
          "current_key": "AIzaSyDASxv1gX0qFGmeQqsAtyUqDOWr-oJQYxA"
        }
      ],
      "services": {
        "analytics_service": {
          "status": 1
        },
        "appinvite_service": {
          "status": 2,
          "other_platform_oauth_client": [
            {
              "client_id": "568509215615-9s379nbahv3u9bn8rgdsrt8tafchfkrl.apps.googleusercontent.com",
              "client_type": 3
            }
          ]
        },
        "ads_service": {
          "status": 2
        }
      }
    }
  ],
  "configuration_version": "1"
}